Wisdom and Governors
…
Commentary: http://www.stat.columbia.edu/~gelman/research/published/causal_paths_3.pdf Response: https://erikgahner.dk/2020/a-response-to-andrew-gelman/

Scenarios

Imagine you work for a life insurer, and want to forecast how long a newly elected Senator might live based on their age, party, and other variables.

Imagine you are a researcher. You want to know if winning candidates live longer.

Data

For this assignment, we will use the governors dataset, which contains information on U.S. gubernatorial candidates and their election outcomes. This dataset comes from published research and is available in the primer.data package.

Explore the data. What is the outcome variable? How is it distributed?

# A tibble: 3,587 × 13
   state    year first_name last_name party   sex   died       status win_margin
   <chr>   <int> <chr>      <chr>     <chr>   <chr> <date>     <chr>       <dbl>
 1 Alabama  1851 Henry      Collier   Democr… Male  1855-08-28 Chall…     73.4  
 2 Alabama  1853 John       Winston   Democr… Male  1871-12-21 Chall…     46.1  
 3 Alabama  1855 John       Winston   Democr… Male  1871-12-21 Chall…     15.6  
 4 Alabama  1857 Andrew     Moore     Democr… Male  1873-04-05 Chall…    100    
 5 Alabama  1859 Andrew     Moore     Democr… Male  1873-04-05 Chall…     45.6  
 6 Alabama  1861 John       Shorter   Democr… Male  1872-05-29 Chall…     15.2  
 7 Alabama  1863 John       Shorter   Democr… Male  1872-05-29 Chall…    -49.0  
 8 Alabama  1868 William    Smith     Republ… Male  1899-01-01 Chall…    100    
 9 Alabama  1870 Robert     Lindsay   Democr… Male  1902-02-13 Chall…      0.936
10 Alabama  1870 William    Smith     Republ… Male  1899-01-01 Chall…     -0.936
# ℹ 3,577 more rows
# ℹ 4 more variables: region <chr>, election_age <dbl>, death_age <dbl>,
#   lived_after <dbl>
…
